Project 1
…
 chr [1:3868712, 1:14] "SEX" "1" "1" "2" "1" "1" "2" "1" "2" "2" "2" "2" ...

Name_census <- as_tibble(parsed[-1, ], .name_repair = "minimal")
colnames(Name_census) <- parsed[1, ]
Name_census <- Name_census %>%
  mutate(across(everything(), as.numeric)) %>%
  mutate(across(c(FER, HHL, SCH, SCHL, SEX), as.factor))

#creating class variable in tibble
class(Name_census) <- c("census", class(Name_census))

#checking the name census tibble
Name_census

# A tibble: 3,868,711 × 14
   SEX   PWGTP   MAR SCHL   AGEP  GASP GRPIP  JWAP  JWDP JWMNP FER   HHL   SCH  
   <fct> <dbl> <dbl> <fct> <dbl> <dbl> <dbl> <dbl> <dbl> <dbl> <fct> <fct> <fct>
 1 1         2     1 16       64     3     0     0     0     0 0     0     1    
 2 1        17     5 11       19     3     0     0     0     0 0     0     1    
 3 2        19     2 21       84     3     0     0     0     0 0     0     1    
 4 1        13     5 13       51     3     0     0     0     0 0     0     1    
 5 1         4     5 5        72     3     0     0     0     0 0     0     1    
 6 2         9     3 18       54     3     0    92    49    20 0     0     1    
 7 1        17     1 16       71     3     0     0     0     0 0     0     1    
 8 2        17     3 16       56     3     0     0     0     0 0     0     1    
 9 2        16     5 20       23     3     0   162   100    10 2     0     3    
10 2        17     5 19       19     3     0    84    43    10 2     0     2    
# ℹ 3,868,701 more rows
# ℹ 1 more variable: state <dbl>

Name_census_Sub <- Name_census %>% 
  mutate(across(everything(), as.numeric)) %>%
   mutate(across(c(FER, HHL, SCH, SCHL, SEX), as.factor)) %>%
  mutate(year = 2022) |>
  mutate(JWAP = (JWAP - 1) * 5 + 2.5) %>%
  mutate(JWDP = (JWDP - 1) * 5 + 2.5) %>%
   filter(FER == 1)%>%
  select(PWGTP, AGEP) 
 
Name_census_Sub

# A tibble: 3,061,424 × 2
   PWGTP  AGEP
   <dbl> <dbl>
 1     2    64
 2    17    19
 3    19    84
 4    13    51
 5     4    72
 6     9    54
 7    17    71
 8    17    56
 9    15    86
10     8    51
# ℹ 3,061,414 more rows
…
